# 0 - Token index
## 1 - Surface
## 2 - Lemma
## 3 - POS
## 4 - BIO-NP
## 5 - DepRel
## 6 - Dependent_Token
## 7 - BIO-DefiniendumDefiniens_Term
## 8 - Termhood
## 9 - TF_Gen
## 10 - TF_Domain
## 11 - TFIDF_Domain
## 12 - Definitional_Prominence
## 13 - Definiendum_Prominence
## 14 - Definiens_Prominence
#
## Unigram
#
## Surface
U00:%x[-2,1]
U01:%x[-1,1]
U02:%x[0,1]
U03:%x[1,1]
U04:%x[2,1]
U05:%x[-1,1]/%x[0,1]
U06:%x[0,1]/%x[1,1]
#
## Lemma
U07:%x[-2,2]
U08:%x[-1,2]
U09:%x[0,2]
U10:%x[1,2]
U11:%x[2,2]
U12:%x[-2,2]/%x[-1,2]
U13:%x[-1,2]/%x[0,2]
U14:%x[0,2]/%x[1,2]
U15:%x[1,2]/%x[2,2]
#
## POS
U16:%x[-2,3]
U17:%x[-1,3]
U18:%x[0,3]
U19:%x[1,3]
U20:%x[2,3]
U21:%x[-2,3]/%x[-1,3]
U22:%x[-1,3]/%x[0,3]
U23:%x[0,3]/%x[1,3]
U24:%x[1,3]/%x[2,3]
#
## BIO-NP
U25:%x[-2,4]
U26:%x[-1,4]
U27:%x[0,4]
U28:%x[1,4]
U29:%x[2,4]
U30:%x[-2,4]/%x[-1,4]
U31:%x[-1,4]/%x[0,4]
U32:%x[0,4]/%x[1,4]
U33:%x[1,4]/%x[2,4]
#
## Deprel #
U106:%x[-2,5]
U107:%x[-1,5]
U108:%x[0,5]
U109:%x[1,5]
U110:%x[2,5]
U111:%x[-2,5]/%x[-1,5]
U112:%x[-1,5]/%x[0,5]
U113:%x[0,5]/%x[1,5]
U114:%x[1,5]/%x[2,5]
U115:%x[-2,5]/%x[-1,5]/%x[0,5]
U116:%x[-1,5]/%x[0,5]/%x[1,5]
U#117:%x[0,5]/%x[1,5]/%x[2,5]
#
## BIO-DefiniendumDefiniens_Term
U34:%x[-2,7]
U35:%x[-1,7]
U36:%x[0,7]
U37:%x[1,7]
U38:%x[2,7]
U39:%x[-2,7]/%x[-1,7]
U40:%x[-1,7]/%x[0,7]
U41:%x[0,7]/%x[1,7]
U42:%x[1,7]/%x[2,7]
#
## Termhood
U43:%x[-2,8]
U44:%x[-1,8]
U45:%x[0,8]
U46:%x[1,8]
U47:%x[2,8]
U48:%x[-2,8]/%x[-1,8]
U49:%x[-1,8]/%x[0,8]
U50:%x[0,8]/%x[1,8]
U51:%x[1,8]/%x[2,8]
##
### TF_Gen
U52:%x[-2,9]
U53:%x[-1,9]
U54:%x[0,9]
U55:%x[1,9]
U56:%x[2,9]
U57:%x[-2,9]/%x[-1,9]
U58:%x[-1,9]/%x[0,9]
U59:%x[0,9]/%x[1,9]
U60:%x[1,9]/%x[2,9]
#
## TF_Domain
U61:%x[-2,10]
U62:%x[-1,10]
U63:%x[0,10]
U64:%x[1,10]
U65:%x[2,10]
U66:%x[-2,10]/%x[-1,10]
U67:%x[-1,10]/%x[0,10]
U68:%x[0,10]/%x[1,10]
U69:%x[1,10]/%x[2,10]
#
## TFIDF_Domain
U70:%x[-2,11]
U71:%x[-1,11]
U72:%x[0,11]
U73:%x[1,11]
U74:%x[2,11]
U75:%x[-2,11]/%x[-1,11]
U76:%x[-1,11]/%x[0,11]
U77:%x[0,11]/%x[1,11]
U78:%x[1,11]/%x[2,11]
#
## Definitional_Prominence
U79:%x[-2,12]
U80:%x[-1,12]
U81:%x[0,12]
U82:%x[1,12]
U83:%x[2,12]
U84:%x[-2,12]/%x[-1,12]
U85:%x[-1,12]/%x[0,12]
U86:%x[0,12]/%x[1,12]
U87:%x[1,12]/%x[2,12]
#
## Definiendum_Prominence
U88:%x[-2,13]
U89:%x[-1,13]
U90:%x[0,13]
U91:%x[1,13]
U92:%x[2,13]
U93:%x[-2,13]/%x[-1,13]
U94:%x[-1,13]/%x[0,13]
U95:%x[0,13]/%x[1,13]
U96:%x[1,13]/%x[2,13]
#
## Definiens_Prominence
U97:%x[-2,14]
U98:%x[-1,14]
U99:%x[0,14]
U100:%x[1,14]
U101:%x[2,14]
U102:%x[-2,14]/%x[-1,14]
U103:%x[-1,14]/%x[0,14]
U104:%x[0,14]/%x[1,14]
U105:%x[1,14]/%x[2,14]
#
## Bigram
B
#
